{
  "module-name": "bantam-spinner",
  "module-desc": "A module to implement a simple set of CSS spinner widgets for BantamJS. Each widget uses a single div element with the relevant classes applied, that is then styled into a loading spinner.",
  "author": "Caspar Anderegg <canderegg@alarm.com>",
  "documentation": "https://gitlab.com/canderegg/bantam-spinner/blob/master/README.md",
  "repository": "https://gitlab.com/canderegg/bantam-spinner.git",
  "license": "https://gitlab.com/canderegg/bantam-spinner/blob/master/LICENSE",
  "dependencies": {
  },
  "versions": {
    "1.0": [
      "https://canderegg.gitlab.io/bantam-coop/files/bantam-spinner/1.0/bantam-spinner-1.0.min.css",
      "https://canderegg.gitlab.io/bantam-coop/files/bantam-spinner/LICENSE.txt"
    ]
  }
}
